{
  "href" : "https://api.spotify.com/v1/artists/246dkjvS1zLTtiykXe5h60/albums?offset=0&limit=20&include_groups=album,single,compilation,appears_on&market=ES",
  "items" : [ {
    "album_group" : "album",
    "album_type" : "album",
    "artists" : [ {
      "external_urls" : {
        "spotify" : "https://open.spotify.com/artist/246dkjvS1zLTtiykXe5h60"
      },
      "href" : "https://api.spotify.com/v1/artists/246dkjvS1zLTtiykXe5h60",
      "id" : "246dkjvS1zLTtiykXe5h60",
      "name" : "Post Malone",
      "type" : "artist",
      "uri" : "spotify:artist:246dkjvS1zLTtiykXe5h60"
    } ],
    "external_urls" : {
      "spotify" : "https://open.spotify.com/album/4g1ZRSobMefqF6nelkgibi"
    },
    "href" : "https://api.spotify.com/v1/albums/4g1ZRSobMefqF6nelkgibi",
    "id" : "4g1ZRSobMefqF6nelkgibi",
    "images" : [ {
      "height" : 640,
      "url" : "https://i.scdn.co/image/94105e271865c28853bfb7b44b38353a2fea45d6",
      "width" : 640
    }, {
      "height" : 300,
      "url" : "https://i.scdn.co/image/e2e8a627df64b4824c9f2bb8e69e44f975200abb",
      "width" : 300
    }, {
      "height" : 64,
      "url" : "https://i.scdn.co/image/a7f2cc3d9b653ac116a3666cc3aaf01880aab8bd",
      "width" : 64
    } ],
    "name" : "Hollywood's Bleeding",
    "release_date" : "2019-09-06",
    "release_date_precision" : "day",
    "total_tracks" : 17,
    "type" : "album",
    "uri" : "spotify:album:4g1ZRSobMefqF6nelkgibi"
  }, {
    "album_group" : "album",
    "album_type" : "album",
    "artists" : [ {
      "external_urls" : {
        "spotify" : "https://open.spotify.com/artist/246dkjvS1zLTtiykXe5h60"
      },
      "href" : "https://api.spotify.com/v1/artists/246dkjvS1zLTtiykXe5h60",
      "id" : "246dkjvS1zLTtiykXe5h60",
      "name" : "Post Malone",
      "type" : "artist",
      "uri" : "spotify:artist:246dkjvS1zLTtiykXe5h60"
    } ],
    "external_urls" : {
      "spotify" : "https://open.spotify.com/album/3xiq77UtnlDXfcRz5IJu20"
    },
    "href" : "https://api.spotify.com/v1/albums/3xiq77UtnlDXfcRz5IJu20",
    "id" : "3xiq77UtnlDXfcRz5IJu20",
    "images" : [ {
      "height" : 640,
      "url" : "https://i.scdn.co/image/94105e271865c28853bfb7b44b38353a2fea45d6",
      "width" : 640
    }, {
      "height" : 300,
      "url" : "https://i.scdn.co/image/e2e8a627df64b4824c9f2bb8e69e44f975200abb",
      "width" : 300
    }, {
      "height" : 64,
      "url" : "https://i.scdn.co/image/a7f2cc3d9b653ac116a3666cc3aaf01880aab8bd",
      "width" : 64
    } ],
    "name" : "Hollywood's Bleeding",
    "release_date" : "2019-09-06",
    "release_date_precision" : "day",
    "total_tracks" : 17,
    "type" : "album",
    "uri" : "spotify:album:3xiq77UtnlDXfcRz5IJu20"
  }, {
    "album_group" : "album",
    "album_type" : "album",
    "artists" : [ {
      "external_urls" : {
        "spotify" : "https://open.spotify.com/artist/246dkjvS1zLTtiykXe5h60"
      },
      "href" : "https://api.spotify.com/v1/artists/246dkjvS1zLTtiykXe5h60",
      "id" : "246dkjvS1zLTtiykXe5h60",
      "name" : "Post Malone",
      "type" : "artist",
      "uri" : "spotify:artist:246dkjvS1zLTtiykXe5h60"
    } ],
    "external_urls" : {
      "spotify" : "https://open.spotify.com/album/6trNtQUgC8cgbWcqoMYkOR"
    },
    "href" : "https://api.spotify.com/v1/albums/6trNtQUgC8cgbWcqoMYkOR",
    "id" : "6trNtQUgC8cgbWcqoMYkOR",
    "images" : [ {
      "height" : 640,
      "url" : "https://i.scdn.co/image/08569f4ebf39ea275f9601a0f5ae62c489485a7b",
      "width" : 640
    }, {
      "height" : 300,
      "url" : "https://i.scdn.co/image/d85f15fcbf946d42f3465a8bf1294fff6c64d5fd",
      "width" : 300
    }, {
      "height" : 64,
      "url" : "https://i.scdn.co/image/4eeab79394ac6dd1d58132e9cecc5d6ba61b9ca1",
      "width" : 64
    } ],
    "name" : "beerbongs & bentleys",
    "release_date" : "2018-04-27",
    "release_date_precision" : "day",
    "total_tracks" : 18,
    "type" : "album",
    "uri" : "spotify:album:6trNtQUgC8cgbWcqoMYkOR"
  }, {
    "album_group" : "album",
    "album_type" : "album",
    "artists" : [ {
      "external_urls" : {
        "spotify" : "https://open.spotify.com/artist/246dkjvS1zLTtiykXe5h60"
      },
      "href" : "https://api.spotify.com/v1/artists/246dkjvS1zLTtiykXe5h60",
      "id" : "246dkjvS1zLTtiykXe5h60",
      "name" : "Post Malone",
      "type" : "artist",
      "uri" : "spotify:artist:246dkjvS1zLTtiykXe5h60"
    } ],
    "external_urls" : {
      "spotify" : "https://open.spotify.com/album/5s0rmjP8XOPhP6HhqOhuyC"
    },
    "href" : "https://api.spotify.com/v1/albums/5s0rmjP8XOPhP6HhqOhuyC",
    "id" : "5s0rmjP8XOPhP6HhqOhuyC",
    "images" : [ {
      "height" : 640,
      "url" : "https://i.scdn.co/image/c17e558d633b4d3d2c589abf4478fd4e2b52a09b",
      "width" : 640
    }, {
      "height" : 300,
      "url" : "https://i.scdn.co/image/b131bfab0aa87470e34e3d5f017d6d1eec66572b",
      "width" : 300
    }, {
      "height" : 64,
      "url" : "https://i.scdn.co/image/23bae95100dcb6ac8f88c19fa2a11c50a998a926",
      "width" : 64
    } ],
    "name" : "Stoney (Deluxe)",
    "release_date" : "2016-12-09",
    "release_date_precision" : "day",
    "total_tracks" : 18,
    "type" : "album",
    "uri" : "spotify:album:5s0rmjP8XOPhP6HhqOhuyC"
  }, {
    "album_group" : "album",
    "album_type" : "album",
    "artists" : [ {
      "external_urls" : {
        "spotify" : "https://open.spotify.com/artist/246dkjvS1zLTtiykXe5h60"
      },
      "href" : "https://api.spotify.com/v1/artists/246dkjvS1zLTtiykXe5h60",
      "id" : "246dkjvS1zLTtiykXe5h60",
      "name" : "Post Malone",
      "type" : "artist",
      "uri" : "spotify:artist:246dkjvS1zLTtiykXe5h60"
    } ],
    "external_urls" : {
      "spotify" : "https://open.spotify.com/album/3zAcZrky4QNM28YS0tHSYQ"
    },
    "href" : "https://api.spotify.com/v1/albums/3zAcZrky4QNM28YS0tHSYQ",
    "id" : "3zAcZrky4QNM28YS0tHSYQ",
    "images" : [ {
      "height" : 640,
      "url" : "https://i.scdn.co/image/c17e558d633b4d3d2c589abf4478fd4e2b52a09b",
      "width" : 640
    }, {
      "height" : 300,
      "url" : "https://i.scdn.co/image/b131bfab0aa87470e34e3d5f017d6d1eec66572b",
      "width" : 300
    }, {
      "height" : 64,
      "url" : "https://i.scdn.co/image/23bae95100dcb6ac8f88c19fa2a11c50a998a926",
      "width" : 64
    } ],
    "name" : "Stoney",
    "release_date" : "2016-12-09",
    "release_date_precision" : "day",
    "total_tracks" : 14,
    "type" : "album",
    "uri" : "spotify:album:3zAcZrky4QNM28YS0tHSYQ"
  }, {
    "album_group" : "single",
    "album_type" : "single",
    "artists" : [ {
      "external_urls" : {
        "spotify" : "https://open.spotify.com/artist/246dkjvS1zLTtiykXe5h60"
      },
      "href" : "https://api.spotify.com/v1/artists/246dkjvS1zLTtiykXe5h60",
      "id" : "246dkjvS1zLTtiykXe5h60",
      "name" : "Post Malone",
      "type" : "artist",
      "uri" : "spotify:artist:246dkjvS1zLTtiykXe5h60"
    }, {
      "external_urls" : {
        "spotify" : "https://open.spotify.com/artist/757aE44tKEUQEqRuT6GnEB"
      },
      "href" : "https://api.spotify.com/v1/artists/757aE44tKEUQEqRuT6GnEB",
      "id" : "757aE44tKEUQEqRuT6GnEB",
      "name" : "Roddy Ricch",
      "type" : "artist",
      "uri" : "spotify:artist:757aE44tKEUQEqRuT6GnEB"
    }, {
      "external_urls" : {
        "spotify" : "https://open.spotify.com/artist/5LHRHt1k9lMyONurDHEdrp"
      },
      "href" : "https://api.spotify.com/v1/artists/5LHRHt1k9lMyONurDHEdrp",
      "id" : "5LHRHt1k9lMyONurDHEdrp",
      "name" : "Tyga",
      "type" : "artist",
      "uri" : "spotify:artist:5LHRHt1k9lMyONurDHEdrp"
    } ],
    "external_urls" : {
      "spotify" : "https://open.spotify.com/album/1Id3Zj9GMvi7dPj3u6cMNs"
    },
    "href" : "https://api.spotify.com/v1/albums/1Id3Zj9GMvi7dPj3u6cMNs",
    "id" : "1Id3Zj9GMvi7dPj3u6cMNs",
    "images" : [ {
      "height" : 640,
      "url" : "https://i.scdn.co/image/d30c07323bfb1a0d27b4733e0c4884e6ccfec277",
      "width" : 640
    }, {
      "height" : 300,
      "url" : "https://i.scdn.co/image/5abd0309464eb351e54dfbe5eb57055d05415829",
      "width" : 300
    }, {
      "height" : 64,
      "url" : "https://i.scdn.co/image/68b75a13d0e2451a79a50db2776ab3d3c374a94f",
      "width" : 64
    } ],
    "name" : "Wow. (Remix)",
    "release_date" : "2019-03-15",
    "release_date_precision" : "day",
    "total_tracks" : 1,
    "type" : "album",
    "uri" : "spotify:album:1Id3Zj9GMvi7dPj3u6cMNs"
  }, {
    "album_group" : "single",
    "album_type" : "single",
    "artists" : [ {
      "external_urls" : {
        "spotify" : "https://open.spotify.com/artist/246dkjvS1zLTtiykXe5h60"
      },
      "href" : "https://api.spotify.com/v1/artists/246dkjvS1zLTtiykXe5h60",
      "id" : "246dkjvS1zLTtiykXe5h60",
      "name" : "Post Malone",
      "type" : "artist",
      "uri" : "spotify:artist:246dkjvS1zLTtiykXe5h60"
    } ],
    "external_urls" : {
      "spotify" : "https://open.spotify.com/album/5oL7DNAeNb3CzJ4AujYFlO"
    },
    "href" : "https://api.spotify.com/v1/albums/5oL7DNAeNb3CzJ4AujYFlO",
    "id" : "5oL7DNAeNb3CzJ4AujYFlO",
    "images" : [ {
      "height" : 640,
      "url" : "https://i.scdn.co/image/2eae2889431df6427dcbb16caf53321888ff5524",
      "width" : 640
    }, {
      "height" : 300,
      "url" : "https://i.scdn.co/image/bb1c9a630b666a031c5893e87453f7dfd558edd0",
      "width" : 300
    }, {
      "height" : 64,
      "url" : "https://i.scdn.co/image/a96cd569a031a8a3b2944f134ceace7e18ea37fe",
      "width" : 64
    } ],
    "name" : "Wow. (Instrumental)",
    "release_date" : "2019-03-14",
    "release_date_precision" : "day",
    "total_tracks" : 1,
    "type" : "album",
    "uri" : "spotify:album:5oL7DNAeNb3CzJ4AujYFlO"
  }, {
    "album_group" : "single",
    "album_type" : "single",
    "artists" : [ {
      "external_urls" : {
        "spotify" : "https://open.spotify.com/artist/246dkjvS1zLTtiykXe5h60"
      },
      "href" : "https://api.spotify.com/v1/artists/246dkjvS1zLTtiykXe5h60",
      "id" : "246dkjvS1zLTtiykXe5h60",
      "name" : "Post Malone",
      "type" : "artist",
      "uri" : "spotify:artist:246dkjvS1zLTtiykXe5h60"
    }, {
      "external_urls" : {
        "spotify" : "https://open.spotify.com/artist/1SupJlEpv7RS2tPNRaHViT"
      },
      "href" : "https://api.spotify.com/v1/artists/1SupJlEpv7RS2tPNRaHViT",
      "id" : "1SupJlEpv7RS2tPNRaHViT",
      "name" : "Nicky Jam",
      "type" : "artist",
      "uri" : "spotify:artist:1SupJlEpv7RS2tPNRaHViT"
    }, {
      "external_urls" : {
        "spotify" : "https://open.spotify.com/artist/1i8SpTcr7yvPOmcqrbnVXY"
      },
      "href" : "https://api.spotify.com/v1/artists/1i8SpTcr7yvPOmcqrbnVXY",
      "id" : "1i8SpTcr7yvPOmcqrbnVXY",
      "name" : "Ozuna",
      "type" : "artist",
      "uri" : "spotify:artist:1i8SpTcr7yvPOmcqrbnVXY"
    } ],
    "external_urls" : {
      "spotify" : "https://open.spotify.com/album/7zoRgdMDAV1J7N4tfmnwtF"
    },
    "href" : "https://api.spotify.com/v1/albums/7zoRgdMDAV1J7N4tfmnwtF",
    "id" : "7zoRgdMDAV1J7N4tfmnwtF",
    "images" : [ {
      "height" : 640,
      "url" : "https://i.scdn.co/image/e92edb1e52e749a3afd036f0990e241682fc2243",
      "width" : 640
    }, {
      "height" : 300,
      "url" : "https://i.scdn.co/image/a058ecd63e349d30bb628ca7b59f7dbf2411d05c",
      "width" : 300
    }, {
      "height" : 64,
      "url" : "https://i.scdn.co/image/fb7e0f1b1d2834929e32f6acfe23e1a158907ce0",
      "width" : 64
    } ],
    "name" : "rockstar (Remix)",
    "release_date" : "2017-12-08",
    "release_date_precision" : "day",
    "total_tracks" : 1,
    "type" : "album",
    "uri" : "spotify:album:7zoRgdMDAV1J7N4tfmnwtF"
  }, {
    "album_group" : "single",
    "album_type" : "single",
    "artists" : [ {
      "external_urls" : {
        "spotify" : "https://open.spotify.com/artist/246dkjvS1zLTtiykXe5h60"
      },
      "href" : "https://api.spotify.com/v1/artists/246dkjvS1zLTtiykXe5h60",
      "id" : "246dkjvS1zLTtiykXe5h60",
      "name" : "Post Malone",
      "type" : "artist",
      "uri" : "spotify:artist:246dkjvS1zLTtiykXe5h60"
    }, {
      "external_urls" : {
        "spotify" : "https://open.spotify.com/artist/0VRj0yCOv2FXJNP47XQnx5"
      },
      "href" : "https://api.spotify.com/v1/artists/0VRj0yCOv2FXJNP47XQnx5",
      "id" : "0VRj0yCOv2FXJNP47XQnx5",
      "name" : "Quavo",
      "type" : "artist",
      "uri" : "spotify:artist:0VRj0yCOv2FXJNP47XQnx5"
    }, {
      "external_urls" : {
        "spotify" : "https://open.spotify.com/artist/1RyvyyTE3xzB2ZywiAwp0i"
      },
      "href" : "https://api.spotify.com/v1/artists/1RyvyyTE3xzB2ZywiAwp0i",
      "id" : "1RyvyyTE3xzB2ZywiAwp0i",
      "name" : "Future",
      "type" : "artist",
      "uri" : "spotify:artist:1RyvyyTE3xzB2ZywiAwp0i"
    } ],
    "external_urls" : {
      "spotify" : "https://open.spotify.com/album/3oeiU8nG5eDm5YPpDvK6eS"
    },
    "href" : "https://api.spotify.com/v1/albums/3oeiU8nG5eDm5YPpDvK6eS",
    "id" : "3oeiU8nG5eDm5YPpDvK6eS",
    "images" : [ {
      "height" : 640,
      "url" : "https://i.scdn.co/image/2f4bc023893bbc6859009fd680d07a40c648b012",
      "width" : 640
    }, {
      "height" : 300,
      "url" : "https://i.scdn.co/image/27b05730bbf1af96832ddbd5397ad4f6766571db",
      "width" : 300
    }, {
      "height" : 64,
      "url" : "https://i.scdn.co/image/0d33472e91053c2f5a76fea61a9aa20ed901cc3e",
      "width" : 64
    } ],
    "name" : "Congratulations (Remix)",
    "release_date" : "2017-06-16",
    "release_date_precision" : "day",
    "total_tracks" : 1,
    "type" : "album",
    "uri" : "spotify:album:3oeiU8nG5eDm5YPpDvK6eS"
  }, {
    "album_group" : "appears_on",
    "album_type" : "album",
    "artists" : [ {
      "external_urls" : {
        "spotify" : "https://open.spotify.com/artist/0LyfQWJT6nXafLPZqxe9Of"
      },
      "href" : "https://api.spotify.com/v1/artists/0LyfQWJT6nXafLPZqxe9Of",
      "id" : "0LyfQWJT6nXafLPZqxe9Of",
      "name" : "Various Artists",
      "type" : "artist",
      "uri" : "spotify:artist:0LyfQWJT6nXafLPZqxe9Of"
    } ],
    "external_urls" : {
      "spotify" : "https://open.spotify.com/album/0urSxgSRruqI8ukIPldCsA"
    },
    "href" : "https://api.spotify.com/v1/albums/0urSxgSRruqI8ukIPldCsA",
    "id" : "0urSxgSRruqI8ukIPldCsA",
    "images" : [ {
      "height" : 640,
      "url" : "https://i.scdn.co/image/3c78a829031d322c1d942325758a24784b4eb191",
      "width" : 640
    }, {
      "height" : 300,
      "url" : "https://i.scdn.co/image/30f43e50c19228cc43c693d31f4b27254ffa7bbd",
      "width" : 300
    }, {
      "height" : 64,
      "url" : "https://i.scdn.co/image/b532d41b03db41e190d83febb000e0f5274e0025",
      "width" : 64
    } ],
    "name" : "Megastar FM 2019 (Solo Temazos)",
    "release_date" : "2019-07-19",
    "release_date_precision" : "day",
    "total_tracks" : 24,
    "type" : "album",
    "uri" : "spotify:album:0urSxgSRruqI8ukIPldCsA"
  }, {
    "album_group" : "appears_on",
    "album_type" : "compilation",
    "artists" : [ {
      "external_urls" : {
        "spotify" : "https://open.spotify.com/artist/0LyfQWJT6nXafLPZqxe9Of"
      },
      "href" : "https://api.spotify.com/v1/artists/0LyfQWJT6nXafLPZqxe9Of",
      "id" : "0LyfQWJT6nXafLPZqxe9Of",
      "name" : "Various Artists",
      "type" : "artist",
      "uri" : "spotify:artist:0LyfQWJT6nXafLPZqxe9Of"
    } ],
    "external_urls" : {
      "spotify" : "https://open.spotify.com/album/75oNJEw5IWsZMhaqZlR30n"
    },
    "href" : "https://api.spotify.com/v1/albums/75oNJEw5IWsZMhaqZlR30n",
    "id" : "75oNJEw5IWsZMhaqZlR30n",
    "images" : [ {
      "height" : 640,
      "url" : "https://i.scdn.co/image/795712f24fbd43ca624811ec0b2d42424c0716b6",
      "width" : 640
    }, {
      "height" : 300,
      "url" : "https://i.scdn.co/image/d0b79edba26688599108f42dc9b95dbe67fee823",
      "width" : 300
    }, {
      "height" : 64,
      "url" : "https://i.scdn.co/image/2fde310b15d63581ec15f03a60e9986db55afe82",
      "width" : 64
    } ],
    "name" : "Caribe 2019 + Disco Estrella Vol. 22",
    "release_date" : "2019-06-14",
    "release_date_precision" : "day",
    "total_tracks" : 80,
    "type" : "album",
    "uri" : "spotify:album:75oNJEw5IWsZMhaqZlR30n"
  }, {
    "album_group" : "appears_on",
    "album_type" : "compilation",
    "artists" : [ {
      "external_urls" : {
        "spotify" : "https://open.spotify.com/artist/0LyfQWJT6nXafLPZqxe9Of"
      },
      "href" : "https://api.spotify.com/v1/artists/0LyfQWJT6nXafLPZqxe9Of",
      "id" : "0LyfQWJT6nXafLPZqxe9Of",
      "name" : "Various Artists",
      "type" : "artist",
      "uri" : "spotify:artist:0LyfQWJT6nXafLPZqxe9Of"
    } ],
    "external_urls" : {
      "spotify" : "https://open.spotify.com/album/1wRUbgaBbRf8aCFBc5JRPB"
    },
    "href" : "https://api.spotify.com/v1/albums/1wRUbgaBbRf8aCFBc5JRPB",
    "id" : "1wRUbgaBbRf8aCFBc5JRPB",
    "images" : [ {
      "height" : 640,
      "url" : "https://i.scdn.co/image/ab67616d0000b27352d93058c40db7936a526691",
      "width" : 640
    }, {
      "height" : 300,
      "url" : "https://i.scdn.co/image/ab67616d00001e0252d93058c40db7936a526691",
      "width" : 300
    }, {
      "height" : 64,
      "url" : "https://i.scdn.co/image/ab67616d0000485152d93058c40db7936a526691",
      "width" : 64
    } ],
    "name" : "Disco Estrella Vol. 22 (Los Auténticos Éxitos Del Verano 2019)",
    "release_date" : "2019-06-14",
    "release_date_precision" : "day",
    "total_tracks" : 40,
    "type" : "album",
    "uri" : "spotify:album:1wRUbgaBbRf8aCFBc5JRPB"
  }, {
    "album_group" : "appears_on",
    "album_type" : "album",
    "artists" : [ {
      "external_urls" : {
        "spotify" : "https://open.spotify.com/artist/0QHgL1lAIqAw0HtD7YldmP"
      },
      "href" : "https://api.spotify.com/v1/artists/0QHgL1lAIqAw0HtD7YldmP",
      "id" : "0QHgL1lAIqAw0HtD7YldmP",
      "name" : "DJ Khaled",
      "type" : "artist",
      "uri" : "spotify:artist:0QHgL1lAIqAw0HtD7YldmP"
    } ],
    "external_urls" : {
      "spotify" : "https://open.spotify.com/album/1YgX8BWKleDlDeCOFklRfz"
    },
    "href" : "https://api.spotify.com/v1/albums/1YgX8BWKleDlDeCOFklRfz",
    "id" : "1YgX8BWKleDlDeCOFklRfz",
    "images" : [ {
      "height" : 640,
      "url" : "https://i.scdn.co/image/f974e1e83d74b44fb173b9e7751344e4b1f6829a",
      "width" : 640
    }, {
      "height" : 300,
      "url" : "https://i.scdn.co/image/9a25dc4e0d04081b881d4ba399d044429eae4a6f",
      "width" : 300
    }, {
      "height" : 64,
      "url" : "https://i.scdn.co/image/3b45ccb2614c49dab1563cba4d24ccba00dd9691",
      "width" : 64
    } ],
    "name" : "Father Of Asahd",
    "release_date" : "2019-05-17",
    "release_date_precision" : "day",
    "total_tracks" : 15,
    "type" : "album",
    "uri" : "spotify:album:1YgX8BWKleDlDeCOFklRfz"
  }, {
    "album_group" : "appears_on",
    "album_type" : "compilation",
    "artists" : [ {
      "external_urls" : {
        "spotify" : "https://open.spotify.com/artist/0LyfQWJT6nXafLPZqxe9Of"
      },
      "href" : "https://api.spotify.com/v1/artists/0LyfQWJT6nXafLPZqxe9Of",
      "id" : "0LyfQWJT6nXafLPZqxe9Of",
      "name" : "Various Artists",
      "type" : "artist",
      "uri" : "spotify:artist:0LyfQWJT6nXafLPZqxe9Of"
    } ],
    "external_urls" : {
      "spotify" : "https://open.spotify.com/album/2AxOOszzPGtpcxeZQSoOZb"
    },
    "href" : "https://api.spotify.com/v1/albums/2AxOOszzPGtpcxeZQSoOZb",
    "id" : "2AxOOszzPGtpcxeZQSoOZb",
    "images" : [ {
      "height" : 640,
      "url" : "https://i.scdn.co/image/195576365aa84fb9f17dfe41cea20837a2929d21",
      "width" : 640
    }, {
      "height" : 300,
      "url" : "https://i.scdn.co/image/8d126b5dcb83c5f7ca6d5587eb683a0ad21c05c6",
      "width" : 300
    }, {
      "height" : 64,
      "url" : "https://i.scdn.co/image/5b4a216d67c94f05e07f39523a349d61a09962c9",
      "width" : 64
    } ],
    "name" : "Superventas 2019",
    "release_date" : "2019-05-10",
    "release_date_precision" : "day",
    "total_tracks" : 37,
    "type" : "album",
    "uri" : "spotify:album:2AxOOszzPGtpcxeZQSoOZb"
  }, {
    "album_group" : "appears_on",
    "album_type" : "compilation",
    "artists" : [ {
      "external_urls" : {
        "spotify" : "https://open.spotify.com/artist/0LyfQWJT6nXafLPZqxe9Of"
      },
      "href" : "https://api.spotify.com/v1/artists/0LyfQWJT6nXafLPZqxe9Of",
      "id" : "0LyfQWJT6nXafLPZqxe9Of",
      "name" : "Various Artists",
      "type" : "artist",
      "uri" : "spotify:artist:0LyfQWJT6nXafLPZqxe9Of"
    } ],
    "external_urls" : {
      "spotify" : "https://open.spotify.com/album/3Yzs99VxLGitfinZiH7Hbx"
    },
    "href" : "https://api.spotify.com/v1/albums/3Yzs99VxLGitfinZiH7Hbx",
    "id" : "3Yzs99VxLGitfinZiH7Hbx",
    "images" : [ {
      "height" : 640,
      "url" : "https://i.scdn.co/image/dafbc85347cfff3e30661a89889f1f19dd0d4321",
      "width" : 640
    }, {
      "height" : 300,
      "url" : "https://i.scdn.co/image/20bb6573c55149bf4bbcaa3435700d9eb0ac90f5",
      "width" : 300
    }, {
      "height" : 64,
      "url" : "https://i.scdn.co/image/3e4ab0eedf764b155f07bfc7e558a7d73a869078",
      "width" : 64
    } ],
    "name" : "GH DÚO",
    "release_date" : "2019-03-15",
    "release_date_precision" : "day",
    "total_tracks" : 42,
    "type" : "album",
    "uri" : "spotify:album:3Yzs99VxLGitfinZiH7Hbx"
  }, {
    "album_group" : "appears_on",
    "album_type" : "compilation",
    "artists" : [ {
      "external_urls" : {
        "spotify" : "https://open.spotify.com/artist/0LyfQWJT6nXafLPZqxe9Of"
      },
      "href" : "https://api.spotify.com/v1/artists/0LyfQWJT6nXafLPZqxe9Of",
      "id" : "0LyfQWJT6nXafLPZqxe9Of",
      "name" : "Various Artists",
      "type" : "artist",
      "uri" : "spotify:artist:0LyfQWJT6nXafLPZqxe9Of"
    } ],
    "external_urls" : {
      "spotify" : "https://open.spotify.com/album/3pOj4mmxL5MUwR1IR8LPzL"
    },
    "href" : "https://api.spotify.com/v1/albums/3pOj4mmxL5MUwR1IR8LPzL",
    "id" : "3pOj4mmxL5MUwR1IR8LPzL",
    "images" : [ {
      "height" : 640,
      "url" : "https://i.scdn.co/image/ab67616d0000b273ea0eb66d4b8fef4a84c599fe",
      "width" : 640
    }, {
      "height" : 300,
      "url" : "https://i.scdn.co/image/ab67616d00001e02ea0eb66d4b8fef4a84c599fe",
      "width" : 300
    }, {
      "height" : 64,
      "url" : "https://i.scdn.co/image/ab67616d00004851ea0eb66d4b8fef4a84c599fe",
      "width" : 64
    } ],
    "name" : "Spider-Man: Into the Spider-Verse (Deluxe Edition / Soundtrack From & Inspired By The Motion Picture)",
    "release_date" : "2019-02-22",
    "release_date_precision" : "day",
    "total_tracks" : 15,
    "type" : "album",
    "uri" : "spotify:album:3pOj4mmxL5MUwR1IR8LPzL"
  }, {
    "album_group" : "appears_on",
    "album_type" : "album",
    "artists" : [ {
      "external_urls" : {
        "spotify" : "https://open.spotify.com/artist/43ZHCT0cAZBISjO8DG9PnE"
      },
      "href" : "https://api.spotify.com/v1/artists/43ZHCT0cAZBISjO8DG9PnE",
      "id" : "43ZHCT0cAZBISjO8DG9PnE",
      "name" : "Elvis Presley",
      "type" : "artist",
      "uri" : "spotify:artist:43ZHCT0cAZBISjO8DG9PnE"
    } ],
    "external_urls" : {
      "spotify" : "https://open.spotify.com/album/1vaQwUom5fWnLNJDcabU01"
    },
    "href" : "https://api.spotify.com/v1/albums/1vaQwUom5fWnLNJDcabU01",
    "id" : "1vaQwUom5fWnLNJDcabU01",
    "images" : [ {
      "height" : 640,
      "url" : "https://i.scdn.co/image/06cc0468438b701783a1d1ebd02802a728c2b909",
      "width" : 640
    }, {
      "height" : 300,
      "url" : "https://i.scdn.co/image/5880be08bc3120fc3b3f6fb8363fec1316e672d7",
      "width" : 300
    }, {
      "height" : 64,
      "url" : "https://i.scdn.co/image/4bcb84a5575bf407f4a21a74990d694eace474d4",
      "width" : 64
    } ],
    "name" : "The Best of The '68 Comeback Special",
    "release_date" : "2019-02-15",
    "release_date_precision" : "day",
    "total_tracks" : 19,
    "type" : "album",
    "uri" : "spotify:album:1vaQwUom5fWnLNJDcabU01"
  }, {
    "album_group" : "appears_on",
    "album_type" : "compilation",
    "artists" : [ {
      "external_urls" : {
        "spotify" : "https://open.spotify.com/artist/0LyfQWJT6nXafLPZqxe9Of"
      },
      "href" : "https://api.spotify.com/v1/artists/0LyfQWJT6nXafLPZqxe9Of",
      "id" : "0LyfQWJT6nXafLPZqxe9Of",
      "name" : "Various Artists",
      "type" : "artist",
      "uri" : "spotify:artist:0LyfQWJT6nXafLPZqxe9Of"
    } ],
    "external_urls" : {
      "spotify" : "https://open.spotify.com/album/630JbiNGEKOrOpMJe2hESC"
    },
    "href" : "https://api.spotify.com/v1/albums/630JbiNGEKOrOpMJe2hESC",
    "id" : "630JbiNGEKOrOpMJe2hESC",
    "images" : [ {
      "height" : 640,
      "url" : "https://i.scdn.co/image/ab67616d0000b273374ddbbc7332d8455867e45e",
      "width" : 640
    }, {
      "height" : 300,
      "url" : "https://i.scdn.co/image/ab67616d00001e02374ddbbc7332d8455867e45e",
      "width" : 300
    }, {
      "height" : 64,
      "url" : "https://i.scdn.co/image/ab67616d00004851374ddbbc7332d8455867e45e",
      "width" : 64
    } ],
    "name" : "Dancefloor Annual 2019 (40 Éxitos De Auténtica Música De Baile)",
    "release_date" : "2019-02-08",
    "release_date_precision" : "day",
    "total_tracks" : 40,
    "type" : "album",
    "uri" : "spotify:album:630JbiNGEKOrOpMJe2hESC"
  }, {
    "album_group" : "appears_on",
    "album_type" : "single",
    "artists" : [ {
      "external_urls" : {
        "spotify" : "https://open.spotify.com/artist/1swLxPLFeTdN9swoz4jfVH"
      },
      "href" : "https://api.spotify.com/v1/artists/1swLxPLFeTdN9swoz4jfVH",
      "id" : "1swLxPLFeTdN9swoz4jfVH",
      "name" : "T.A.",
      "type" : "artist",
      "uri" : "spotify:artist:1swLxPLFeTdN9swoz4jfVH"
    } ],
    "external_urls" : {
      "spotify" : "https://open.spotify.com/album/4XcqDh8yETcBLq1QBY4MxK"
    },
    "href" : "https://api.spotify.com/v1/albums/4XcqDh8yETcBLq1QBY4MxK",
    "id" : "4XcqDh8yETcBLq1QBY4MxK",
    "images" : [ {
      "height" : 640,
      "url" : "https://i.scdn.co/image/61551a58a5c209675710e91f9111b9c730387816",
      "width" : 640
    }, {
      "height" : 300,
      "url" : "https://i.scdn.co/image/bc9697b9c6f5e3b1f13d3fb4ea18a4d9f0d52f3e",
      "width" : 300
    }, {
      "height" : 64,
      "url" : "https://i.scdn.co/image/fff8b295126346ebce6c25af93a3952141a077ad",
      "width" : 64
    } ],
    "name" : "I know",
    "release_date" : "2019-01-30",
    "release_date_precision" : "day",
    "total_tracks" : 1,
    "type" : "album",
    "uri" : "spotify:album:4XcqDh8yETcBLq1QBY4MxK"
  }, {
    "album_group" : "appears_on",
    "album_type" : "compilation",
    "artists" : [ {
      "external_urls" : {
        "spotify" : "https://open.spotify.com/artist/0LyfQWJT6nXafLPZqxe9Of"
      },
      "href" : "https://api.spotify.com/v1/artists/0LyfQWJT6nXafLPZqxe9Of",
      "id" : "0LyfQWJT6nXafLPZqxe9Of",
      "name" : "Various Artists",
      "type" : "artist",
      "uri" : "spotify:artist:0LyfQWJT6nXafLPZqxe9Of"
    } ],
    "external_urls" : {
      "spotify" : "https://open.spotify.com/album/35s58BRTGAEWztPo9WqCIs"
    },
    "href" : "https://api.spotify.com/v1/albums/35s58BRTGAEWztPo9WqCIs",
    "id" : "35s58BRTGAEWztPo9WqCIs",
    "images" : [ {
      "height" : 640,
      "url" : "https://i.scdn.co/image/3aa37254a41cf96e81572524ec523cb870f2bb89",
      "width" : 640
    }, {
      "height" : 300,
      "url" : "https://i.scdn.co/image/c30bfc4adfa8924e87f3dff571d0d8c6f032fa0a",
      "width" : 300
    }, {
      "height" : 64,
      "url" : "https://i.scdn.co/image/923b854eefa3fe67c5089c45fb9efea4fbc5c7af",
      "width" : 64
    } ],
    "name" : "Spider-Man: Into the Spider-Verse (Soundtrack From & Inspired by the Motion Picture)",
    "release_date" : "2018-12-14",
    "release_date_precision" : "day",
    "total_tracks" : 13,
    "type" : "album",
    "uri" : "spotify:album:35s58BRTGAEWztPo9WqCIs"
  } ],
  "limit" : 20,
  "next" : "https://api.spotify.com/v1/artists/246dkjvS1zLTtiykXe5h60/albums?offset=20&limit=20&include_groups=album,single,compilation,appears_on&market=ES",
  "offset" : 0,
  "previous" : null,
  "total" : 66
}